<svg xmlns="http://www.w3.org/2000/svg" width="18" height="18" viewBox="0 0 18 18">
    <g fill="#106CB6" fill-rule="evenodd">
        <circle cx="9" cy="9" r="9" opacity=".15"/>
        <path stroke="#106CB6" stroke-width=".15" d="M12.028 5.486a1.657 1.657 0 0 0-2.346 0l-4.3 4.3a.215.215 0 0 0-.061.123l-.319 2.36a.214.214 0 0 0 .06.181c.041.04.097.064.153.064.01 0 .02 0 .029-.002l1.422-.192a.216.216 0 1 0-.058-.429l-1.14.154.223-1.646 1.732 1.732a.212.212 0 0 0 .304 0l4.301-4.299c.314-.314.487-.73.487-1.174 0-.443-.173-.86-.487-1.172zm-2.262.529l.722.722-3.925 3.924-.722-.722 3.925-3.924zm-2.19 5.658l-.705-.706 3.924-3.924.706.706-3.924 3.924zm4.226-4.233l-1.727-1.728c.22-.18.493-.28.781-.28a1.224 1.224 0 0 1 1.227 1.226c0 .29-.1.562-.28.782z"/>
    </g>
</svg>
